…
``` r
brfss = brfss_smart2010 %>%
  janitor::clean_names() %>%
  filter(topic == "Overall Health" |
           response == "Excellent" |
           response == "Very good" |
           response == "Good" |
           response == "Fair" |
           response == "Poor") %>%
mutate(response = factor(response, labels = c("Poor","Fair","Good","Very good", "Excellent" ))) %>%
select(-location_id, -data_value_footnote_symbol, -data_value_footnote)
brfss
```

    ## # A tibble: 10,625 x 20
    ##     year locationabbr locationdesc class topic question response
    ##    <int> <chr>        <chr>        <chr> <chr> <chr>    <fct>   
    ##  1  2010 AL           AL - Jeffer… Heal… Over… How is … Poor    
    ##  2  2010 AL           AL - Jeffer… Heal… Over… How is … Excelle…
    ##  3  2010 AL           AL - Jeffer… Heal… Over… How is … Good    
    ##  4  2010 AL           AL - Jeffer… Heal… Over… How is … Fair    
    ##  5  2010 AL           AL - Jeffer… Heal… Over… How is … Very go…
    ##  6  2010 AL           AL - Mobile… Heal… Over… How is … Poor    
    ##  7  2010 AL           AL - Mobile… Heal… Over… How is … Excelle…
    ##  8  2010 AL           AL - Mobile… Heal… Over… How is … Good    
    ##  9  2010 AL           AL - Mobile… Heal… Over… How is … Fair    
    ## 10  2010 AL           AL - Mobile… Heal… Over… How is … Very go…
    ## # … with 10,615 more rows, and 13 more variables: sample_size <int>,
    ## #   data_value <dbl>, confidence_limit_low <dbl>,
    ## #   confidence_limit_high <dbl>, display_order <int>,
    ## #   data_value_unit <chr>, data_value_type <chr>, data_source <chr>,
    ## #   class_id <chr>, topic_id <chr>, question_id <chr>, respid <chr>,
    ## #   geo_location <chr>
…
``` r
two_panel_data
```

    ## # A tibble: 75 x 20
    ##     year locationabbr locationdesc class topic question response
    ##    <int> <chr>        <chr>        <chr> <chr> <chr>    <fct>   
    ##  1  2010 NY           NY - Bronx … Heal… Over… How is … Poor    
    ##  2  2010 NY           NY - Bronx … Heal… Over… How is … Excelle…
    ##  3  2010 NY           NY - Bronx … Heal… Over… How is … Good    
    ##  4  2010 NY           NY - Bronx … Heal… Over… How is … Fair    
    ##  5  2010 NY           NY - Bronx … Heal… Over… How is … Very go…
    ##  6  2010 NY           NY - Erie C… Heal… Over… How is … Poor    
    ##  7  2010 NY           NY - Erie C… Heal… Over… How is … Excelle…
    ##  8  2010 NY           NY - Erie C… Heal… Over… How is … Good    
    ##  9  2010 NY           NY - Erie C… Heal… Over… How is … Fair    
    ## 10  2010 NY           NY - Erie C… Heal… Over… How is … Very go…
    ## # … with 65 more rows, and 13 more variables: sample_size <int>,
    ## #   data_value <dbl>, confidence_limit_low <dbl>,
    ## #   confidence_limit_high <dbl>, display_order <int>,
    ## #   data_value_unit <chr>, data_value_type <chr>, data_source <chr>,
    ## #   class_id <chr>, topic_id <chr>, question_id <chr>, respid <chr>,
    ## #   geo_location <chr>
…
## Aggregate across minutes to create a total activity variable for each day

``` r
agg_acc_data = prob3 %>%
  pivot_longer(activity_1:activity_1440,
               names_to = "activity_min",
               values_to = "activity") %>%
  group_by(day_id, day, week, dow) %>%
  summarize(daily_activity = sum(activity))
agg_acc_data
```

    ## # A tibble: 35 x 5
    ## # Groups:   day_id, day, week [35]
    ##    day_id day        week dow     daily_activity
    ##     <dbl> <fct>     <dbl> <chr>            <dbl>
    ##  1      1 Monday        1 Weekday        480543.
    ##  2      2 Tuesday       1 Weekday         78828.
    ##  3      3 Wednesday     1 Weekday        376254 
    ##  4      4 Thursday      1 Weekday        631105 
    ##  5      5 Friday        1 Weekday        355924.
    ##  6      6 Saturday      1 Weekend        307094.
    ##  7      7 Sunday        1 Weekend        340115.
    ##  8      8 Monday        2 Weekday        568839 
    ##  9      9 Tuesday       2 Weekday        295431 
    ## 10     10 Wednesday     2 Weekday        607175 
    ## # … with 25 more rows
…
